﻿Initons

A 分析   O 操作   P 处理   M 管理
V 感知   E 执行   C 控制   S 静态
I 增加   D 减少   U 改变   Q 查找

PDE肽展公式3.0 in DeMorgan 结合律 加法

A= V + S = U + Q + I + Q = U + Q + I = V + I
O= E + S = I + U + I + Q = I + U + Q = E + Q
P= E + C = I + U + I + D = I + U + D = E + D
M= C + S = I + D + I + Q = I + D + Q = C + Q
=>a o p m 
A= S - I = I - S =
O= S - Q = Q - S =
P= C - D = D - S =
M= S - Q = Q - S =
=>
V + S = V + I => S = I
E + S = E + Q => S = Q
E + C = E + D => C = D
C + S = C + Q => S = Q 

=> 竟然和人类的ACGTU 腺吻合!
S 已经彻底解码为 A 腺嘌呤
A 腺嘌呤在dna中属于原生静态物质

V + S = V + I => S = I
E + S = E + Q => S = Q
E + C = E + D => C = D
C + S = C + Q => S = Q 
=> 
S 为 A 腺嘌呤   在dna中属于原生活性物质
Q 为 T 胸腺嘧啶 在dna中属于感应活性物质
I 为 U 尿嘧啶   在dna中属于增生活性物质
C 为 G 鸟嘌呤   在dna中属于控制活性物质
D 为 C 胞嘧啶   在dna中属于降解活性物质
=>
嘌呤 生物多样化特征 属于VPCS INTIONS肽!
嘧啶 生物应激性特征 属于IDUQ INTIONS肽!

V= U + Q 
E= I + U 
C= I + D 
S= I + Q 

I= !D
U= !Q

罗瑶光
2020年10月25日 6:00 AM D8+

我得到严谨的论证结果:
A 分析            O 操作             P 处理             M 管理
V 感知            E 执行             C 控制(G 鸟嘌呤)   S 静态(A 腺嘌呤)
I 增加(U 尿嘧啶)  D 减少(C 胞嘧啶)   U 改变             Q 查找(T 胸腺嘧啶)

可以推断:
A 分析(TA 变感腺嘌呤) O 操作(UA 增变腺嘌呤)  P 处理(UG 增变鸟嘌呤)   M 管理(GA 鸟腺嘌呤) 
V 感知(T 变感嘌呤)    E 执行(U 增变嘌呤)     C 控制(G 鸟嘌呤)        S 静态(A  腺嘌呤)
I 增加(U 尿嘧啶)      D 减少(C 胞嘧啶)       U 改变(变嘧啶)          Q 感应(T  胸腺嘧啶)

U 改变(变嘧啶) Named by yaoguangluo 20201025







